Uganda Air Quality Forecast
…
Uganda Air Quality Forecast

Brian Stefan Ssali

2020-05-09

We are going to be looking at the air quality of Uganda. The data is from a Zindi challenge

Looking at the nature of the data

# tt <- air_quality_dirty %>% head(10) %>% flextable::flextable() %>% flextable::theme_zebra()
# flextable::width(tt,width =  .002)
air_quality_dirty
## # A tibble: 15,539 x 9
##    ID    location temp  precip rel_humidity wind_dir wind_spd atmos_press target
##    <chr> <chr>    <chr> <chr>  <chr>        <chr>    <chr>    <chr>        <dbl>
##  1 ID_t~ C        nan,~ nan,n~ nan,nan,nan~ nan,nan~ nan,nan~ nan,nan,na~   45.1
##  2 ID_t~ D        22.5~ 0.102~ 0.744583333~ 281.664~ 2.3775,~ 90.32,90.3~   79.1
##  3 ID_t~ A        28.9~ 0.0,0~ 0.573333333~ nan,nan~ nan,nan~ 88.5516666~   32.7
##  4 ID_t~ A        22.9~ 0.0,0~ 0.843083332~ 300.085~ 1.44666~ 88.615,88.~   53.9
##  5 ID_t~ A        21.8~ 0.0,0~ 0.856416667~ 21.8399~ 0.1975,~ 88.5566666~  177. 
##  6 ID_t~ E        26.2~ 0.0,0~ 0.756666667~ nan,104~ nan,1.4~ 88.5658333~   17.0
##  7 ID_t~ C        21.8~ 0.0,0~ 0.548333333~ 334.082~ 1.1525,~ 87.7366666~   53.1
##  8 ID_t~ A        28.2~ 0.0,0~ 0.52725,0.5~ 328.461~ 1.92666~ 88.0141666~   55.1
##  9 ID_t~ A        19.0~ 0.017~ 0.974916667~ 281.627~ 0.43416~ 88.4341666~  205. 
## 10 ID_t~ B        nan,~ nan,n~ nan,nan,nan~ nan,nan~ nan,nan~ nan,nan,na~   25.6
## # ... with 15,529 more rows
…
